…
``` r
path <- "../HW_data/Folkhalsomyndigheten_Covid19.xlsx"

# a) & b)
# tar in alla flikar från excel och spara dom som en tibble.
path %>%
  excel_sheets() %>% # tar fram alla flikar
  set_names() %>% # sätter namn
  map(read_xlsx, path = path) # tar en funktion och "loopar".
```

    ## $`Antal per dag region`
    ## # A tibble: 239 x 23
    ##    Statistikdatum      Totalt_antal_fa… Blekinge Dalarna Gotland Gävleborg
    ##    <dttm>                         <dbl>    <dbl>   <dbl>   <dbl>     <dbl>
    ##  1 2020-02-04 00:00:00                1        0       0       0         0
    ##  2 2020-02-05 00:00:00                0        0       0       0         0
    ##  3 2020-02-06 00:00:00                0        0       0       0         0
    ##  4 2020-02-07 00:00:00                0        0       0       0         0
    ##  5 2020-02-08 00:00:00                0        0       0       0         0
    ##  6 2020-02-09 00:00:00                0        0       0       0         0
    ##  7 2020-02-10 00:00:00                0        0       0       0         0
    ##  8 2020-02-11 00:00:00                0        0       0       0         0
    ##  9 2020-02-12 00:00:00                0        0       0       0         0
    ## 10 2020-02-13 00:00:00                0        0       0       0         0
    ## # … with 229 more rows, and 17 more variables: Halland <dbl>,
    ## #   Jämtland_Härjedalen <dbl>, Jönköping <dbl>, Kalmar <dbl>, Kronoberg <dbl>,
    ## #   Norrbotten <dbl>, Skåne <dbl>, Stockholm <dbl>, Sörmland <dbl>,
    ## #   Uppsala <dbl>, Värmland <dbl>, Västerbotten <dbl>, Västernorrland <dbl>,
    ## #   Västmanland <dbl>, Västra_Götaland <dbl>, Örebro <dbl>, Östergötland <dbl>
    ## 
    ## $`Antal avlidna per dag`
    ## # A tibble: 204 x 2
    ##    Datum_avliden Antal_avlidna
    ##    <chr>                 <dbl>
    ##  1 43901                     1
    ##  2 43902                     0
    ##  3 43903                     1
    ##  4 43904                     1
    ##  5 43905                     2
    ##  6 43906                     2
    ##  7 43907                     1
    ##  8 43908                     6
    ##  9 43909                     7
    ## 10 43910                     9
    ## # … with 194 more rows
    ## 
    ## $`Antal intensivvårdade per dag`
    ## # A tibble: 208 x 2
    ##    Datum_vårdstart     Antal_intensivvårdade
    ##    <dttm>                              <dbl>
    ##  1 2020-03-06 00:00:00                     1
    ##  2 2020-03-07 00:00:00                     1
    ##  3 2020-03-08 00:00:00                     1
    ##  4 2020-03-09 00:00:00                     0
    ##  5 2020-03-10 00:00:00                     2
    ##  6 2020-03-11 00:00:00                     1
    ##  7 2020-03-12 00:00:00                     0
    ##  8 2020-03-13 00:00:00                     2
    ##  9 2020-03-14 00:00:00                     6
    ## 10 2020-03-15 00:00:00                     5
    ## # … with 198 more rows
    ## 
    ## $`Totalt antal per region`
    ## # A tibble: 21 x 5
    ##    Region   Totalt_antal_fa… Fall_per_100000… Totalt_antal_int… Totalt_antal_av…
    ##    <chr>               <dbl>            <dbl>             <dbl>            <dbl>
    ##  1 Blekinge              712             446.                 9               17
    ##  2 Dalarna              2543             883.                67              177
    ##  3 Gotland               330             553.                 7                6
    ##  4 Gävlebo…             3379            1176.                76              168
    ##  5 Halland              2576             772.                41               87
    ##  6 Jämtlan…             1289             985.                20               64
    ##  7 Jönköpi…             5375            1478.                96              183
    ##  8 Kalmar                929             378.                31               64
    ##  9 Kronobe…             1705             846.                25              122
    ## 10 Norrbot…             1750             700.                60               88
    ## # … with 11 more rows
    ## 
    ## $`Totalt antal per kön`
…
    ##    <chr>                     <dbl>                     <dbl>               <dbl>
    ##  1 Ålder_0_9                   710                         8                   2
    ##  2 Ålder_10_19                4783                        18                   0
    ##  3 Ålder_20_29               15700                        97                  10
    ##  4 Ålder_30_39               14469                       119                  19
    ##  5 Ålder_40_49               15143                       289                  45
    ##  6 Ålder_50_59               16129                       661                 166
    ##  7 Ålder_60_69                9166                       781                 407
    ##  8 Ålder_70_79                6259                       515                1268
    ##  9 Ålder_80_89                6822                       113                2441
    ## 10 Ålder_90_plus              3661                         4                1535
    ## 11 Uppgift saknas               21                         0                   0
    ## 
    ## $`Veckodata Region`
    ## # A tibble: 693 x 10
    ##    veckonummer Region Antal_fall_vecka Kum_antal_fall Antal_intensivv…
    ##          <dbl> <chr>             <dbl>          <dbl>            <dbl>
    ##  1           6 Bleki…                0              0                0
    ##  2           7 Bleki…                0              0                0
    ##  3           8 Bleki…                0              0                0
    ##  4           9 Bleki…                0              0                0
    ##  5          10 Bleki…                0              0                0
    ##  6          11 Bleki…               10             10                0
    ##  7          12 Bleki…                2             12                0
    ##  8          13 Bleki…                9             21                1
    ##  9          14 Bleki…               15             36                1
    ## 10          15 Bleki…                6             42                0
    ## # … with 683 more rows, and 5 more variables: Kum_antal_intensivvårdade <dbl>,
    ## #   Antal_avlidna_vecka <dbl>, Kum_antal_avlidna <dbl>,
    ## #   Antal_fall_100000inv_vecka <dbl>, Kum_fall_100000inv <dbl>
    ## 
    ## $`Veckodata Kommun_stadsdel`
    ## # A tibble: 10,626 x 9
    ##    veckonummer KnKod KnNamn Stadsdel Kommun_stadsdel tot_antal_fall_…
    ##          <dbl> <chr> <chr>  <lgl>    <chr>                      <dbl>
    ##  1           6 1440  Ale    NA       Ale                            0
    ##  2           7 1440  Ale    NA       Ale                            0
    ##  3           8 1440  Ale    NA       Ale                            0
    ##  4           9 1440  Ale    NA       Ale                            0
    ##  5          10 1440  Ale    NA       Ale                            0
    ##  6          11 1440  Ale    NA       Ale                           NA
    ##  7          12 1440  Ale    NA       Ale                           NA
    ##  8          13 1440  Ale    NA       Ale                           NA
    ##  9          14 1440  Ale    NA       Ale                            6
    ## 10          15 1440  Ale    NA       Ale                            9
    ## # … with 10,616 more rows, and 3 more variables: antal_fall_per10000_inv <dbl>,
    ## #   tot_antal_fall <chr>, nya_fall_vecka <chr>
    ## 
    ## $`FOHM 30 Sep 2020`
…
Tabell 1: Antalet avlidna för specifikt datum

``` r
# d) & e)

# Öppnar upp och läser in fliken "Veckodata Kommun_stadsdel",
# och ändrar "stadsdel" till "text" samt "tot_antal_fall" & "nya_fall_vecka, till "numeric"
path %>%
  read_xlsx(sheet = 8, col_types = c(rep("guess", 3), "text", rep("guess", 3), "numeric", "numeric"))
```

    ## # A tibble: 10,626 x 9
    ##    veckonummer KnKod KnNamn Stadsdel Kommun_stadsdel tot_antal_fall_…
    ##          <dbl> <chr> <chr>  <chr>    <chr>                      <dbl>
    ##  1           6 1440  Ale    <NA>     Ale                            0
    ##  2           7 1440  Ale    <NA>     Ale                            0
    ##  3           8 1440  Ale    <NA>     Ale                            0
    ##  4           9 1440  Ale    <NA>     Ale                            0
    ##  5          10 1440  Ale    <NA>     Ale                            0
    ##  6          11 1440  Ale    <NA>     Ale                           NA
    ##  7          12 1440  Ale    <NA>     Ale                           NA
    ##  8          13 1440  Ale    <NA>     Ale                           NA
    ##  9          14 1440  Ale    <NA>     Ale                            6
    ## 10          15 1440  Ale    <NA>     Ale                            9
    ## # … with 10,616 more rows, and 3 more variables: antal_fall_per10000_inv <dbl>,
    ## #   tot_antal_fall <dbl>, nya_fall_vecka <dbl>
…
