…
    ## Warning: 15 parsing failures.
    ##   row col   expected    actual                                          file
    ## 17412  -- 16 columns 1 columns '../HW_data/exp_betyg_ak6_kommun_2018_19.csv'
    ## 17413  -- 16 columns 1 columns '../HW_data/exp_betyg_ak6_kommun_2018_19.csv'
    ## 17414  -- 16 columns 1 columns '../HW_data/exp_betyg_ak6_kommun_2018_19.csv'
    ## 17415  -- 16 columns 1 columns '../HW_data/exp_betyg_ak6_kommun_2018_19.csv'
    ## 17416  -- 16 columns 1 columns '../HW_data/exp_betyg_ak6_kommun_2018_19.csv'
    ## ..... ... .......... ......... .............................................
    ## See problems(...) for more details.

``` r
df_kontroll
```

    ## # A tibble: 17,426 x 16
    ##    Kommun `Kommun-kod` Län   `Läns-kod` `Typ av huvudma… Ämne  Totalt Flickor
    ##    <chr>  <chr>        <chr> <chr>      <chr>            <chr> <chr>  <chr>  
    ##  1 Ale    1440         Väst… 14         Samtliga         Bild  415    219    
    ##  2 Ale    1440         Väst… 14         Kommunal         Bild  393    207    
    ##  3 Ale    1440         Väst… 14         Enskild          Bild  22     12     
    ##  4 Aling… 1489         Väst… 14         Samtliga         Bild  530    262    
    ##  5 Aling… 1489         Väst… 14         Kommunal         Bild  433    207    
    ##  6 Aling… 1489         Väst… 14         Enskild          Bild  97     55     
    ##  7 Alves… 0764         Kron… 07         Samtliga         Bild  243    114    
    ##  8 Alves… 0764         Kron… 07         Kommunal         Bild  234    109    
    ##  9 Alves… 0764         Kron… 07         Enskild          Bild  ..     ..     
    ## 10 Aneby  0604         Jönk… 06         Samtliga         Bild  77     40     
    ## # … with 17,416 more rows, and 8 more variables: Pojkar <chr>, Totalt_1 <chr>,
    ## #   Flickor_1 <chr>, Pojkar_1 <chr>, Totalt_2 <chr>, Flickor_2 <chr>,
    ## #   Pojkar_2 <chr>, X16 <lgl>
…
``` r
df_school <- df_school %>%
  select(-X16) %>% # Tar bort en onödig kolonn som har skapats.
  filter(`Typ av huvudman` == "Samtliga") %>% # Filterar ut den sökta datamängden.
  mutate_all(list(~ str_replace(., "~100", "100.0"))) %>% # gör om alla "~100" till "100.0"
  mutate_all(list(~ str_replace(., ",", "."))) %>% # gör om alla "," till "."
  mutate_at(c(7:15), list(~ str_replace(., " ", ""))) %>% # tar bort alla blanksteg i t.ex 1 000
  mutate_at(c(7:15), as.numeric) # Gör om till numeric

df_school
```

    ## # A tibble: 6,647 x 15
    ##    Kommun `Kommun-kod` Län   `Läns-kod` `Typ av huvudma… Ämne  Totalt Flickor
    ##    <chr>  <chr>        <chr> <chr>      <chr>            <chr>  <dbl>   <dbl>
    ##  1 Ale    1440         Väst… 14         Samtliga         Bild     415     219
    ##  2 Aling… 1489         Väst… 14         Samtliga         Bild     530     262
    ##  3 Alves… 0764         Kron… 07         Samtliga         Bild     243     114
    ##  4 Aneby  0604         Jönk… 06         Samtliga         Bild      77      40
    ##  5 Arboga 1984         Väst… 19         Samtliga         Bild     145      63
    ##  6 Arjep… 2506         Norr… 25         Samtliga         Bild      25      14
    ##  7 Arvid… 2505         Norr… 25         Samtliga         Bild      55      18
    ##  8 Arvika 1784         Värm… 17         Samtliga         Bild     291     134
    ##  9 Asker… 1882         Öreb… 18         Samtliga         Bild     111      52
    ## 10 Avesta 2084         Dala… 20         Samtliga         Bild     255     143
    ## # … with 6,637 more rows, and 7 more variables: Pojkar <dbl>, Totalt_1 <dbl>,
    ## #   Flickor_1 <dbl>, Pojkar_1 <dbl>, Totalt_2 <dbl>, Flickor_2 <dbl>,
    ## #   Pojkar_2 <dbl>
…
